ISSS608-VAA - Take-home Exercise 3
…
# Step 3: Replace wrong class values
df_StudentRecord <- df_StudentRecord %>%
  left_join(correct_classes, by = "student_ID") %>%
  mutate(class = ifelse(!is.na(correct_class), correct_class, class)) %>%
  select(-correct_class)

# Display the updated dataframe
print(df_StudentRecord)

# A tibble: 232,818 × 10
   index class    time state score title_ID method memory timeconsume student_ID
   <dbl> <chr>   <dbl> <chr> <dbl> <chr>    <chr>   <dbl> <chr>       <chr>     
 1     0 Class1 1.70e9 Abso…     3 Questio… Metho…    320 3           8b6d11257…
 2     1 Class1 1.70e9 Abso…     3 Questio… Metho…    356 3           8b6d11257…
 3     2 Class1 1.70e9 Abso…     3 Questio… Metho…    196 2           8b6d11257…
 4     3 Class1 1.70e9 Abso…     3 Questio… Metho…    308 2           63eef3731…
 5     4 Class1 1.70e9 Abso…     4 Questio… Metho…    320 3           5d89810b2…
 6     5 Class1 1.70e9 Erro…     0 Questio… Metho…      0 5           5d89810b2…
 7     6 Class1 1.70e9 Abso…     3 Questio… Metho…    308 2           5d89810b2…
 8     7 Class1 1.70e9 Abso…     3 Questio… Metho…    312 2           47eeab842…
 9     8 Class1 1.70e9 Abso…     3 Questio… Metho…    312 3           47eeab842…
10     9 Class1 1.70e9 Abso…     3 Questio… Metho…    328 2           5d89810b2…
# ℹ 232,808 more rows

Identify students with multiple classes

Click to show code

# Identify students with multiple classes
students_multiple_classes <- df_StudentRecord %>%
  group_by(student_ID) %>%
  summarise(unique_classes = n_distinct(title_ID)) %>%
  filter(unique_classes > 1)

# Display the results
print(students_multiple_classes)

# A tibble: 1,362 × 2
   student_ID           unique_classes
   <chr>                         <int>
 1 0088dc183f73c83f763e             38
 2 00cbf05221bb479e66c3             38
 3 00df647ee4bf7173642f             38
 4 0107f72b66cbd1a0926d             38
 5 011d454f199c123d44ad             38
 6 01558eef77a8d39b7103             38
 7 016226278e6a69e10aa4             38
 8 01a691413dc5897db83f             38
 9 01d8aa21ef476b66c573             38
10 01qkq6w2v62cimidb3b7             35
# ℹ 1,352 more rows
…
# Calculate overall mastery by dividing the total score by the total number of knowledge groups
overall_mastery <- total_scores %>%
  mutate(overall_mastery = total_score / total_knowledge_groups) %>%
  filter (total_score > 1)  %>%
  left_join(df_StudentInfo %>% select(student_ID, sex, age, major), by = "student_ID") %>%
  mutate(age = as.character(age))

# View the overall mastery for each student
print(overall_mastery)

# A tibble: 1,362 × 7
   student_ID           class   total_score overall_mastery sex    age   major 
   <chr>                <chr>         <dbl>           <dbl> <chr>  <chr> <chr> 
 1 0088dc183f73c83f763e Class2         46.4            5.80 female 20    J40192
 2 00cbf05221bb479e66c3 Class10        42.3            5.29 female 19    J23517
 3 00df647ee4bf7173642f Class14        40.9            5.11 male   23    J57489
 4 0107f72b66cbd1a0926d Class5         49.6            6.20 female 20    J87654
 5 011d454f199c123d44ad Class3         37.9            4.74 male   22    J78901
 6 01558eef77a8d39b7103 Class15        43.8            5.48 female 18    J57489
 7 016226278e6a69e10aa4 Class4         38.3            4.79 female 22    J78901
 8 01a691413dc5897db83f Class13        36.5            4.57 male   18    J57489
 9 01d8aa21ef476b66c573 Class1         48.7            6.09 male   18    J87654
10 01qkq6w2v62cimidb3b7 Class6         31.9            3.99 female 19    J57489
# ℹ 1,352 more rows
…
6.2 Performance by questions

6.2.1 Static heatmap for average max actual score per question (normalised and non normalised)

Click to show code

library(dplyr)
library(ggplot2)
library(plotly)

# Check the column names in knowledge_expanded
print(knowledge_expanded)

# A tibble: 274,490 × 18
   title_ID     student_ID index class time     state actual_score method memory
   <chr>        <chr>      <dbl> <chr> <time>   <chr>        <dbl> <chr>   <dbl>
 1 Question_3M… 6b22922bf…   203 Clas… 08:15:03 Erro…            0 Metho…      0
 2 Question_3M… 5e89fad73…  3618 Clas… 13:56:50 Part…            1 Metho…    200
 3 Question_3M… d72abe041…   839 Clas… 11:18:08 Abso…            0 Metho…    188
 4 Question_3M… wwh529n48… 18561 Clas… 08:27:43 Abso…            2 Metho…    340
 5 Question_3M… 38357be0a…  3842 Clas… 11:36:29 Part…            1 Metho…    312
 6 Question_3M… e3d078239…  8267 Clas… 12:47:37 Part…            1 Metho…    384
 7 Question_3M… 3c89c7f1d…  6108 Clas… 15:01:37 Erro…            0 Metho…      0
 8 Question_3M… e7feb8599…  2890 Clas… 03:02:21 Abso…            0 Metho…    324
 9 Question_3M… f9ef2830c… 10447 Clas… 11:56:48 Abso…            2 Metho…    440
10 Question_3M… e58gk2f3c… 13449 Clas… 01:44:51 Part…            1 Metho…    324
# ℹ 274,480 more rows
# ℹ 9 more variables: timeconsume <dbl>, time_change <dttm>, date <date>,
#   sex <chr>, age <dbl>, major <chr>, question_score <dbl>, knowledge <fct>,
#   sub_knowledge <chr>
…
In the Knowledge Area g7R2j, students perform consistently well on Question_5fgqjSBwTPG7KUV3it6O, achieving the highest average score of 0.96. This is the same score as seen in Question_Az73sM0rHfWVKuc4X2kL from the Knowledge Area y9W5d, indicating a strong understanding of the concepts in both g7R2j and y9W5d. Following closely is the Knowledge Area t5V9e, where students score an average highest score of 0.95 on Question_3MwAFlmNO8EKrpY5zjUd.

However, in the Knowledge Area g7R2j, Question_xqlJkmRaP0otZcX4fK3W stands out with the lowest average highest score of 0.85, suggesting that this particular question poses more challenges for students. Meanwhile, all questions in the Knowledge Area r8S3g show a relatively low average highest score, around 0.9, indicating a consistent level of difficulty across this area.

Overall, Knowledge Area g7R2j exhibits the most diverse range of scores, highlighting variability in student performance that could be due to a mix of easier and more challenging questions.

Click to show code

library(dplyr)
library(ggplot2)
library(plotly)

print(knowledge_expanded)

# A tibble: 274,490 × 18
   title_ID     student_ID index class time     state actual_score method memory
   <chr>        <chr>      <dbl> <chr> <time>   <chr>        <dbl> <chr>   <dbl>
 1 Question_3M… 6b22922bf…   203 Clas… 08:15:03 Erro…            0 Metho…      0
 2 Question_3M… 5e89fad73…  3618 Clas… 13:56:50 Part…            1 Metho…    200
 3 Question_3M… d72abe041…   839 Clas… 11:18:08 Abso…            0 Metho…    188
 4 Question_3M… wwh529n48… 18561 Clas… 08:27:43 Abso…            2 Metho…    340
 5 Question_3M… 38357be0a…  3842 Clas… 11:36:29 Part…            1 Metho…    312
 6 Question_3M… e3d078239…  8267 Clas… 12:47:37 Part…            1 Metho…    384
 7 Question_3M… 3c89c7f1d…  6108 Clas… 15:01:37 Erro…            0 Metho…      0
 8 Question_3M… e7feb8599…  2890 Clas… 03:02:21 Abso…            0 Metho…    324
 9 Question_3M… f9ef2830c… 10447 Clas… 11:56:48 Abso…            2 Metho…    440
10 Question_3M… e58gk2f3c… 13449 Clas… 01:44:51 Part…            1 Metho…    324
# ℹ 274,480 more rows
# ℹ 9 more variables: timeconsume <dbl>, time_change <dttm>, date <date>,
#   sex <chr>, age <dbl>, major <chr>, question_score <dbl>, knowledge <fct>,
#   sub_knowledge <chr>
…
Although many scores are displayed in shades of green, indicating a similar range of scores, the color intensity variations provide insights into the relative difficulty and performance across different questions.

6.2.2 Static heatmap for Average of methods used per question

Click to show code

library(dplyr)
library(ggplot2)
library(plotly)

# Check the column names in mastery_scores
print(mastery_scores)

# A tibble: 58,510 × 10
# Groups:   student_ID, title_ID, knowledge, class [57,151]
   student_ID title_ID knowledge class sub_knowledge total_points total_attempts
   <chr>      <chr>    <chr>     <chr> <chr>                <dbl>          <int>
 1 0088dc183… Questio… t5V9e     Clas… t5V9e_e1k6ci…         1                23
 2 0088dc183… Questio… t5V9e     Clas… t5V9e_e1k6ci…         1                 9
 3 0088dc183… Questio… m3D1v     Clas… m3D1v_r1d7fr…         4.67              7
 4 0088dc183… Questio… g7R2j     Clas… g7R2j_e0v1yl…         7.67             22
 5 0088dc183… Questio… y9W5d     Clas… y9W5d_c0w4mj…         1                 1
 6 0088dc183… Questio… m3D1v     Clas… m3D1v_r1d7fr…         1                 1
 7 0088dc183… Questio… m3D1v     Clas… m3D1v_v3d9is…         1                 2
 8 0088dc183… Questio… y9W5d     Clas… y9W5d_p8g6dg…         1.67              4
 9 0088dc183… Questio… r8S3g     Clas… r8S3g_n0m9rs…         2                 8
10 0088dc183… Questio… y9W5d     Clas… y9W5d_e2j7p9…         3.67             11
# ℹ 58,500 more rows
# ℹ 3 more variables: unique_methods <int>, absolutely_correct_methods <int>,
#   adjusted_points <dbl>
…
Click to show code

# Load the necessary library
library(dplyr)

# Group by 'title_ID', 'student_ID', and 'knowledge' and find the max 'actual_score' for each group
max_scores <- adjusted_scores %>%
  group_by(title_ID, student_ID, knowledge) %>%
  summarize(max_actual_score = max(actual_score, na.rm = TRUE))

# Display the result
print(max_scores)

# A tibble: 57,151 × 4
# Groups:   title_ID, student_ID [50,482]
   title_ID                      student_ID           knowledge max_actual_score
   <chr>                         <chr>                <chr>                <dbl>
 1 Question_3MwAFlmNO8EKrpY5zjUd 0088dc183f73c83f763e t5V9e                    2
 2 Question_3MwAFlmNO8EKrpY5zjUd 00cbf05221bb479e66c3 t5V9e                    2
 3 Question_3MwAFlmNO8EKrpY5zjUd 00df647ee4bf7173642f t5V9e                    2
 4 Question_3MwAFlmNO8EKrpY5zjUd 0107f72b66cbd1a0926d t5V9e                    2
 5 Question_3MwAFlmNO8EKrpY5zjUd 011d454f199c123d44ad t5V9e                    2
 6 Question_3MwAFlmNO8EKrpY5zjUd 01558eef77a8d39b7103 t5V9e                    2
 7 Question_3MwAFlmNO8EKrpY5zjUd 016226278e6a69e10aa4 t5V9e                    2
 8 Question_3MwAFlmNO8EKrpY5zjUd 01a691413dc5897db83f t5V9e                    2
 9 Question_3MwAFlmNO8EKrpY5zjUd 01d8aa21ef476b66c573 t5V9e                    2
10 Question_3MwAFlmNO8EKrpY5zjUd 01qkq6w2v62cimidb3b7 t5V9e                    2
# ℹ 57,141 more rows
…
